RDF for Tidyverse Lovers
…
---
class: left, middle

# Schema on read: SPARQL

```
# A tibble: 32 x 5
   Model                 mpg   cyl  disp    hp
   <chr>               <dbl> <int> <dbl> <int>
 1 Merc 230             22.8     4 141.     95
 2 Toyota Corolla       33.9     4  71.1    65
 3 Merc 450SL           17.3     8 276.    180
 4 Fiat 128             32.4     4  78.7    66
 5 Lincoln Continental  10.4     8 460.    215
 6 Merc 450SLC          15.2     8 276.    180
 7 Fiat X1-9            27.3     4  79.0    66
 8 Hornet Sportabout    18.7     8 360.    175
 9 Lotus Europa         30.4     4  95.1   113
10 Valiant              18.1     6 225.    105
# ... with 22 more rows
```
…
---
class: left, middle

# Data Rectangling

```
# A tibble: 30 x 4
   type              user     repo                     when               
   <chr>             <chr>    <chr>                    <dttm>             
 1 PushEvent         cboettig cboettig/noise-phenomena 2018-03-06 05:25:07
 2 IssueCommentEvent cboettig rocker-org/shiny         2018-03-08 01:51:57
 3 PushEvent         cboettig cboettig/NetGen          2018-03-08 17:34:09
 4 PushEvent         cboettig cboettig/labnotebook     2018-03-06 05:27:18
 5 IssueCommentEvent cboettig ropensci/jqr             2018-03-07 22:18:46
 6 PushEvent         cboettig ropensci/rdflib          2018-03-08 21:37:14
 7 PushEvent         cboettig cboettig/noise-phenomena 2018-03-05 22:25:31
 8 PushEvent         cboettig cboettig/noise-phenomena 2018-03-06 18:23:51
 9 CreateEvent       cboettig cboettig/popdyn          2018-03-09 02:34:21
10 PushEvent         cboettig cboettig/NetGen          2018-03-08 17:56:38
# ... with 20 more rows
```
…
---
class: left, middle

# Data Rectangling: Graph Queries

```
# A tibble: 37 x 2
   property      value               
   <chr>         <chr>               
 1 gh:created_at 2018-03-05T22:25:08Z
 2 gh:payload    _:b231              
 3 gh:repo       _:b236              
 4 gh:type       PushEvent           
 5 gh:id         7334335663          
 6 gh:public     true                
 7 gh:actor      _:b230              
 8 gh:created_at 2018-03-05T22:25:31Z
 9 gh:id         7334337582          
10 gh:payload    _:b225              
# ... with 27 more rows
```
…
