…
system.time(
df <- rdf_query(triplestore, query)
)
#>    user  system elapsed 
#>  44.730  29.497 396.329
df <- rdf_query(triplestore, "SELECT ?s ?p ?o WHERE{ ?s ?p ?o }")
#> Warning in rbind(names(probs), probs_f): number of columns of result is not
#> a multiple of vector length (arg 1)
#> Warning: 1391311 parsing failures.
#> row # A tibble: 5 x 5 col       row col   expected   actual     file         expected     <int> <chr> <chr>      <chr>      <chr>        actual 1 1338850 o     an integer _:r1011167 literal data file 2 1338851 o     an integer _:r1011168 literal data row 3 1338852 o     an integer _:r1011169 literal data col 4 1338853 o     an integer _:r1011170 literal data expected 5 1338854 o     an integer _:r1012106 literal data
#> ... ................. ... .................................................. ........ .................................................. ...... .................................................. .... .................................................. ... .................................................. ... .................................................. ........ ..................................................
#> See problems(...) for more details.
df
#> # A tibble: 6,398,744 x 3
#>    s          p                o
#>    <chr>      <chr>        <int>
#>  1 flights:1  flights:year  2013
#>  2 flights:2  flights:year  2013
#>  3 flights:3  flights:year  2013
#>  4 flights:4  flights:year  2013
#>  5 flights:5  flights:year  2013
#>  6 flights:6  flights:year  2013
#>  7 flights:7  flights:year  2013
#>  8 flights:8  flights:year  2013
#>  9 flights:9  flights:year  2013
#> 10 flights:10 flights:year  2013
#> # ... with 6,398,734 more rows
…
