A tidyverse lover’s intro to RDF • rdflib
…
iris2 <- rdf_query(rdf, sparql)

We can automatically create the a SPARQL query that returns “tidy data”. Tidy data has predicates as columns, objects as values, subjects as rows.

sparql <- tidy_schema("Species",  "Sepal.Length", "Sepal.Width", prefix = "iris")

rdf_query(rdf, sparql)

## # A tibble: 198 x 3
##    Species    Sepal_Length Sepal_Width
##    <chr>             <dbl>       <dbl>
##  1 versicolor         6.50        2.80
##  2 versicolor         6.00        2.70
##  3 versicolor         6.00        2.70
##  4 virginica          7.20        3.00
##  5 virginica          7.20        3.00
##  6 versicolor         5.60        2.90
##  7 setosa             4.40        2.90
##  8 versicolor         6.30        2.30
##  9 versicolor         5.60        3.00
## 10 versicolor         5.60        3.00
## # ... with 188 more rows
…
